<svg width="43px" height="25px" viewBox="0 0 110 64" version="1.1" xmlns="http://www.w3.org/2000/svg"
     xmlns:xlink="http://www.w3.org/1999/xlink">
    <title>giropay</title>
    <defs></defs>
    <g id="Others" stroke="none" stroke-width="1" fill="none" fill-rule="evenodd">
        <g id="giropay">
            <g transform="translate(9.833774, 12.447711)" id="layer1">
                <g>
                    <path
                        d="M0.0738351316,7.0105353 C0.0738351316,3.14675597 3.24081295,0.0140412048 7.14543748,0.0140412048 L84.2138055,0.0140412048 C88.1201082,0.0140412048 91.2853716,3.14675597 91.2853716,7.0105353 L91.2853716,32.0134924 C91.2853716,35.8750234 88.1201082,39.0083175 84.2138055,39.0083175 L7.14543748,39.0083175 C3.24081295,39.0083175 0.0738351316,35.8750234 0.0738351316,32.0134924 L0.0738351316,7.0105353 L0.0738351316,7.0105353 Z"
                        id="_92653320" fill="#000268"></path>
                    <path
                        d="M2.97618967,7.24993139 L2.97618967,31.7763815 C2.97618967,34.1904002 4.9557378,36.1482968 7.39754652,36.1482968 L47.7743883,36.1482968 L47.7743883,2.87801571 L7.39754652,2.87801571 C4.9557378,2.87801571 2.97618967,4.83587635 2.97618967,7.24993139 L2.97618967,7.24993139 L2.97618967,7.24993139 Z M58.2070298,19.3906475 C58.2070298,20.9521987 57.4301623,22.0254187 56.1439687,22.0254187 C55.00769,22.0254187 54.0604756,20.9521987 54.0604756,19.5221699 C54.0604756,18.0543458 54.8935295,16.963063 56.1439687,16.963063 C57.4699305,16.963063 58.2070298,18.092178 58.2070298,19.3906475 L58.2070298,19.3906475 Z M50.6550345,28.3467064 L54.0604756,28.3467064 L54.0604756,23.02127 L54.0985294,23.02127 C54.7436146,24.1882161 56.0315227,24.6206523 57.223477,24.6206523 C60.1564782,24.6206523 61.7271791,22.2128361 61.7271791,19.3149832 C61.7271791,16.9449991 60.2325858,14.3655435 57.5062689,14.3655435 C55.9554521,14.3655435 54.5170452,14.9871384 53.8339063,16.3612353 L53.7958525,16.3612353 L53.7958525,14.5930779 L50.6550345,14.5930779 L50.6550345,28.3467064 L50.6550345,28.3467064 Z M66.3784987,21.2903632 C66.3784987,20.3503711 67.2859448,19.9941427 68.4421076,19.9941427 C68.952638,19.9941427 69.4455458,20.0297258 69.8805154,20.0500387 C69.8805154,21.1972165 69.066762,22.3641278 67.7788532,22.3641278 C66.9838529,22.3641278 66.3784987,21.9695227 66.3784987,21.2903632 L66.3784987,21.2903632 Z M73.2479402,24.3954028 C73.0974404,23.624801 73.0593877,22.8519155 73.0593877,22.0813137 L73.0593877,18.430887 C73.0593877,15.4393429 70.8839163,14.3655435 68.3660376,14.3655435 C66.9094605,14.3655435 65.6414359,14.5727292 64.4295984,15.0627658 L64.4875365,17.3593715 C65.4307371,16.8315037 66.5306761,16.624317 67.6283541,16.624317 C68.8566459,16.624317 69.8600841,16.9828312 69.8805154,18.3191329 C69.4455458,18.2434687 68.8384773,18.1858682 68.2899309,18.1858682 C66.4744896,18.1858682 63.1996272,18.5443825 63.1996272,21.535382 C63.1996272,23.6626332 64.9401282,24.6206523 66.8895763,24.6206523 C68.2899309,24.6206523 69.2371092,24.0770056 70.0128086,22.8519155 L70.0508626,22.8519155 C70.0508626,23.3617194 70.1065013,23.867534 70.1269693,24.3954028 L73.2479402,24.3954028 L73.2479402,24.3954028 Z M74.7805512,28.3467064 C75.481275,28.4980339 76.1809051,28.5742418 76.8997987,28.5742418 C80.0230677,28.5742418 80.7601312,26.183909 81.7255154,23.7184923 L85.3416555,14.5930779 L81.933916,14.5930779 L79.9089077,20.9900308 L79.8708537,20.9900308 L77.7510223,14.5930779 L74.0809578,14.5930779 L78.0735835,24.6206523 C77.827129,25.4866856 77.184306,25.9767223 76.3507044,25.9767223 C75.8759658,25.9767223 75.4614282,25.9191219 75.0065737,25.7695356 L74.7805512,28.3467064 L74.7805512,28.3467064 Z"
                        id="_92186184" fill="#FFFFFF"></path>
                    <path
                        d="M11.2959318,19.4104157 C11.2959318,18.0741141 11.9591866,16.963063 13.2272117,16.963063 C14.7598948,16.963063 15.4027188,18.1858682 15.4027188,19.2771521 C15.4027188,20.7828442 14.4373347,21.7984637 13.2272117,21.7984637 C12.2056412,21.7984637 11.2959318,20.9341348 11.2959318,19.4104157 L11.2959318,19.4104157 Z M18.6962977,14.5930779 L15.6111184,14.5930779 L15.6111184,16.3612353 L15.5753268,16.3612353 C14.854135,15.1564929 13.6798036,14.3655435 12.2238099,14.3655435 C9.15847855,14.3655435 7.77633024,16.5503582 7.77633024,19.4662749 C7.77633024,22.3641278 9.46115551,24.3954028 12.1653251,24.3954028 C13.5298876,24.3954028 14.6656185,23.867534 15.4787893,22.720392 L15.5168421,22.720392 L15.5168421,23.2482239 C15.5168421,25.1665839 14.4572188,26.0885133 12.4901484,26.0885133 C11.0699103,26.0885133 10.1982547,25.7875994 9.15847855,25.2800804 L8.98813168,27.9526469 C9.78145442,28.2354968 11.125585,28.5742418 12.7547716,28.5742418 C16.7292274,28.5742418 18.6962977,27.2751918 18.6962977,23.2482239 L18.6962977,14.5930779 L18.6962977,14.5930779 Z M24.4538327,10.510215 L21.0466761,10.510215 L21.0466761,12.9936956 L24.4538327,12.9936956 L24.4538327,10.510215 L24.4538327,10.510215 Z M21.0483905,24.3954028 L24.4538327,24.3954028 L24.4538327,14.5930779 L21.0483905,14.5930779 L21.0483905,24.3954028 L21.0483905,24.3954028 Z M33.9394061,14.4790389 C33.5986753,14.4236875 33.1818749,14.3655435 32.7855054,14.3655435 C31.3090809,14.3655435 30.4578572,15.1564929 29.870673,16.3990675 L29.8326192,16.3990675 L29.8326192,14.5930779 L26.7292711,14.5930779 L26.7292711,24.3954028 L30.1352961,24.3954028 L30.1352961,20.2572244 C30.1352961,18.3371958 31.026288,17.190017 32.6151586,17.190017 C33.0137903,17.190017 33.3902746,17.190017 33.7690592,17.3012275 L33.9394061,14.4790389 L33.9394061,14.4790389 Z M39.8048987,22.2506682 C38.2341968,22.2506682 37.5913738,20.9521987 37.5913738,19.504106 C37.5913738,18.036282 38.2341968,16.7378124 39.8048987,16.7378124 C41.377314,16.7378124 42.0206848,18.036282 42.0206848,19.504106 C42.0206848,20.9521987 41.377314,22.2506682 39.8048987,22.2506682 L39.8048987,22.2506682 Z M39.8048987,24.6206523 C43.0604239,24.6206523 45.5402864,22.7407049 45.5402864,19.504106 C45.5402864,16.2477768 43.0604239,14.3655435 39.8048987,14.3655435 C36.5499193,14.3655435 34.0717722,16.2477768 34.0717722,19.504106 C34.0717722,22.7407049 36.5499193,24.6206523 39.8048987,24.6206523 L39.8048987,24.6206523 Z"
                        id="_47303032" fill="#FF0007"></path>
                </g>
            </g>
        </g>
    </g>
</svg>
