<svg width="74" height="24" xmlns="http://www.w3.org/2000/svg">
  <g fill-rule="nonzero" fill="none">
    <path d="M2.652 0S0 0 0 2.661v18.552s0 2.656 2.652 2.656h68.696S74 23.87 74 21.213V2.66S74 0 71.348 0H2.652z"
          fill="#EB7092"/>
    <path
      d="M11.79 17.158a.905.905 0 0 0 .488-.173.93.93 0 0 0 .42-.926c-.033-.421-.327-.421-.614-.484a1.587 1.587 0 0 1-.972-.72c-.329-.484-.649-.977-.986-1.457a.716.716 0 0 0-1.15-.118c-.454.421-.42 1.006.144 1.587.619.649 1.263 1.264 1.895 1.904.201.213.47.35.762.387m-1.04-6.737a.842.842 0 0 0-.796.947c.013.244.088.48.219.687.543.82 1.09 1.642 1.642 2.454.147.221.385.363.649.388.28.03.556-.082.736-.3.202-.218-.03-.378-.105-.55a1.806 1.806 0 0 1-.135-.759.766.766 0 0 0-.084-.5c-.455-.657-.892-1.319-1.36-1.963a.876.876 0 0 0-.745-.4m1.238-5.962v.156c.28 2.178.547 4.354.8 6.526.058.252.171.488.332.69.123.199.24.186.421.051a1.979 1.979 0 0 1 1.769-.315c.787.185 1.583.345 2.366.555.362.097.484 0 .552-.35.257-1.355.539-2.707.808-4.062.21-1.032.421-2.063.623-3.095a.968.968 0 0 0-.391-1.053.893.893 0 0 0-.981-.046 1.288 1.288 0 0 0-.61.867c-.478 1.642-.958 3.283-1.44 4.922-.093.312-.186.628-.283.94a.358.358 0 0 1-.383.277.383.383 0 0 1-.362-.315c-.03-.118-.055-.236-.08-.354-.442-1.865-.872-3.73-1.322-5.592a1.002 1.002 0 0 0-1.07-.842 1.002 1.002 0 0 0-.766 1.032m-1.747 12.69a4.063 4.063 0 0 0 1.684 2.447c1.591 1.128 4.337 1.145 5.945.054 1.507-1.019 2.526-3.755 2.076-5.587a.922.922 0 0 0-.657-.796c-1.461-.34-2.922-.686-4.392-1.002a.926.926 0 0 0-1.132.594.939.939 0 0 0 .42 1.288c.285.167.595.284.919.345l2.526.569c.244.055.421.172.383.459-.038.286-.244.29-.471.282-1.436-.055-2.009.42-2.24 1.903-.038.248-.11.45-.421.421-.312-.03-.341-.24-.329-.484a2.813 2.813 0 0 1 .78-1.92c.088-.093.281-.147.222-.312-.059-.164-.24-.097-.366-.134-.282-.085-.573-.148-.842-.245a.69.69 0 0 0-.926.796 1.684 1.684 0 0 1-.843 1.84 1.625 1.625 0 0 1-1.995-.316c-.093-.084-.156-.227-.358-.214m1.684-7.049c-.135-1.116-.248-2.105-.37-3.099-.097-.787-.211-1.574-.295-2.366a1.743 1.743 0 0 1 1.36-1.924c.9-.16 1.763.426 1.945 1.322.324 1.305.619 2.623.93 3.932.038.16.022.35.236.497l1.053-3.583c.105-.345.198-.699.32-1.04A1.773 1.773 0 0 1 19.204 2.7a1.71 1.71 0 0 1 1.192 2.025c-.463 2.337-.927 4.674-1.42 7.007-.1.488-.037.72.506.808.678.11.998.636 1.17 1.263.607 2.16-.652 5.474-2.484 6.556-2.294 1.364-5.473 1.078-7.292-.653a5.053 5.053 0 0 1-1.55-3.196 1.107 1.107 0 0 0-.374-.757 2.922 2.922 0 0 1-.918-1.293 1.6 1.6 0 0 1 .99-2.059c.184-.076.42-.076.29-.421a1.625 1.625 0 0 1 .467-1.975c.648-.518 1.335-.463 2.105.076M61.474 13.667V11.79a3.09 3.09 0 0 0 1.52.493v-1.587s-1.52-.278-1.52-1.074V8.286h-1.73v5.752c0 2.034 3.368 2.198 3.368 2.198v-1.5s-1.638-.21-1.638-1.048M56.956 10.947v-.694h-1.684v5.983h1.755v-3.154c0-1.145 1.638-1.124 1.638-1.124v-1.853a3.453 3.453 0 0 0-1.006.186c-.278.167-.518.39-.703.656M44.53 8.522a2.842 2.842 0 0 0-.656 1.73v5.984h1.755v-2.922c0-.91 1.588-1.053 1.588-1.053V10.72c-.284.024-.566.07-.842.139a4.484 4.484 0 0 0-.809.421v-1.175c0-1.027 1.685-.934 1.685-.934V7.579a3.368 3.368 0 0 0-2.687.96M32.699 10.838c-1.402-.564-.724-1.849.072-1.849a1.92 1.92 0 0 1 1.355.796l1.263-.934s-.61-1.403-2.597-1.403a2.644 2.644 0 0 0-2.758 2.527 2.472 2.472 0 0 0 1.987 2.433c1.356.257 1.895.7 1.895 1.264 0 .564-.447 1.099-1.31 1.099s-1.684-.96-1.684-.96l-1.099 1.124s1.17 1.486 2.855 1.486c1.33 0 3.06-.821 3.06-2.758s-1.633-2.265-3.04-2.825M65.234 14.084a1.078 1.078 0 1 0 1.073 1.074c0-.594-.48-1.076-1.073-1.078M51.12 14.762a1.499 1.499 0 1 1 1.55-1.499 1.528 1.528 0 0 1-1.55 1.5m-.055-4.658a3.158 3.158 0 1 0 3.25 3.158 3.213 3.213 0 0 0-3.267-3.158M39.756 14.762a1.499 1.499 0 1 1 1.553-1.499 1.528 1.528 0 0 1-1.553 1.5m-.05-4.658a3.158 3.158 0 1 0 3.267 3.158 3.217 3.217 0 0 0-3.268-3.158"
      fill="#FFF"/>
  </g>
</svg>
